/*
WARNING: Do NOT edit the input and output ports in this file in a text
editor if you plan to continue editing the block that represents it in
the Block Editor! File corruption is VERY likely to occur.
*/
/*
Copyright (C) 1991-2011 Altera Corporation
Your use of Altera Corporation's design tools, logic functions 
and other software and tools, and its AMPP partner logic 
functions, and any output files from any of the foregoing 
(including device programming or simulation files), and any 
associated documentation or information are expressly subject 
to the terms and conditions of the Altera Program License 
Subscription Agreement, Altera MegaCore Function License 
Agreement, or other applicable license agreement, including, 
without limitation, that your use is for the sole purpose of 
programming logic devices manufactured by Altera and sold by 
Altera or its authorized distributors.  Please refer to the 
applicable agreement for further details.
*/
(header "graphic" (version "1.4"))
(pin
	(input)
	(rect -16 -272 152 -256)
	(text "INPUT" (rect 133 0 161 10)(font "Arial" (font_size 6)))
	(text "reset" (rect 9 0 33 12)(font "Arial" ))
	(pt 168 8)
	(drawing
		(line (pt 92 12)(pt 117 12))
		(line (pt 92 4)(pt 117 4))
		(line (pt 121 8)(pt 168 8))
		(line (pt 92 12)(pt 92 4))
		(line (pt 117 4)(pt 121 8))
		(line (pt 117 12)(pt 121 8))
	)
	(text "VCC" (rect 136 7 156 17)(font "Arial" (font_size 6)))
)
(pin
	(input)
	(rect -16 -224 152 -208)
	(text "INPUT" (rect 133 0 161 10)(font "Arial" (font_size 6)))
	(text "enable" (rect 9 0 40 12)(font "Arial" ))
	(pt 168 8)
	(drawing
		(line (pt 92 12)(pt 117 12))
		(line (pt 92 4)(pt 117 4))
		(line (pt 121 8)(pt 168 8))
		(line (pt 92 12)(pt 92 4))
		(line (pt 117 4)(pt 121 8))
		(line (pt 117 12)(pt 121 8))
	)
	(text "VCC" (rect 136 7 156 17)(font "Arial" (font_size 6)))
)
(pin
	(input)
	(rect -16 -128 152 -112)
	(text "INPUT" (rect 133 0 161 10)(font "Arial" (font_size 6)))
	(text "clk" (rect 9 0 23 12)(font "Arial" ))
	(pt 168 8)
	(drawing
		(line (pt 92 12)(pt 117 12))
		(line (pt 92 4)(pt 117 4))
		(line (pt 121 8)(pt 168 8))
		(line (pt 92 12)(pt 92 4))
		(line (pt 117 4)(pt 121 8))
		(line (pt 117 12)(pt 121 8))
	)
	(text "VCC" (rect 136 7 156 17)(font "Arial" (font_size 6)))
)
(pin
	(input)
	(rect -16 -176 152 -160)
	(text "INPUT" (rect 133 0 161 10)(font "Arial" (font_size 6)))
	(text "add_sub" (rect 9 0 50 12)(font "Arial" ))
	(pt 168 8)
	(drawing
		(line (pt 92 12)(pt 117 12))
		(line (pt 92 4)(pt 117 4))
		(line (pt 121 8)(pt 168 8))
		(line (pt 92 12)(pt 92 4))
		(line (pt 117 4)(pt 121 8))
		(line (pt 117 12)(pt 121 8))
	)
	(text "VCC" (rect 136 7 156 17)(font "Arial" (font_size 6)))
)
(pin
	(output)
	(rect 680 -40 856 -24)
	(text "OUTPUT" (rect 1 0 39 10)(font "Arial" (font_size 6)))
	(text "Sum0" (rect 90 0 118 12)(font "Arial" ))
	(pt 0 8)
	(drawing
		(line (pt 0 8)(pt 52 8))
		(line (pt 52 4)(pt 78 4))
		(line (pt 52 12)(pt 78 12))
		(line (pt 52 12)(pt 52 4))
		(line (pt 78 4)(pt 82 8))
		(line (pt 82 8)(pt 78 12))
		(line (pt 78 12)(pt 82 8))
	)
)
(pin
	(output)
	(rect 680 0 856 16)
	(text "OUTPUT" (rect 1 0 39 10)(font "Arial" (font_size 6)))
	(text "Sum1" (rect 90 0 118 12)(font "Arial" ))
	(pt 0 8)
	(drawing
		(line (pt 0 8)(pt 52 8))
		(line (pt 52 4)(pt 78 4))
		(line (pt 52 12)(pt 78 12))
		(line (pt 52 12)(pt 52 4))
		(line (pt 78 4)(pt 82 8))
		(line (pt 82 8)(pt 78 12))
		(line (pt 78 12)(pt 82 8))
	)
)
(pin
	(output)
	(rect 680 48 856 64)
	(text "OUTPUT" (rect 1 0 39 10)(font "Arial" (font_size 6)))
	(text "Sum2" (rect 90 0 118 12)(font "Arial" ))
	(pt 0 8)
	(drawing
		(line (pt 0 8)(pt 52 8))
		(line (pt 52 4)(pt 78 4))
		(line (pt 52 12)(pt 78 12))
		(line (pt 52 12)(pt 52 4))
		(line (pt 78 4)(pt 82 8))
		(line (pt 82 8)(pt 78 12))
		(line (pt 78 12)(pt 82 8))
	)
)
(pin
	(output)
	(rect 680 88 856 104)
	(text "OUTPUT" (rect 1 0 39 10)(font "Arial" (font_size 6)))
	(text "Sum3" (rect 90 0 118 12)(font "Arial" ))
	(pt 0 8)
	(drawing
		(line (pt 0 8)(pt 52 8))
		(line (pt 52 4)(pt 78 4))
		(line (pt 52 12)(pt 78 12))
		(line (pt 52 12)(pt 52 4))
		(line (pt 78 4)(pt 82 8))
		(line (pt 82 8)(pt 78 12))
		(line (pt 78 12)(pt 82 8))
	)
)
(symbol
	(rect 296 -232 432 -72)
	(text "add_dff" (rect 5 0 49 14)(font "Arial" (font_size 8)))
	(text "inst" (rect 8 144 25 156)(font "Arial" ))
	(port
		(pt 0 32)
		(input)
		(text "reset" (rect 0 0 29 14)(font "Arial" (font_size 8)))
		(text "reset" (rect 21 27 50 41)(font "Arial" (font_size 8)))
		(line (pt 0 32)(pt 16 32))
	)
	(port
		(pt 0 48)
		(input)
		(text "enable" (rect 0 0 37 14)(font "Arial" (font_size 8)))
		(text "enable" (rect 21 43 58 57)(font "Arial" (font_size 8)))
		(line (pt 0 48)(pt 16 48))
	)
	(port
		(pt 0 64)
		(input)
		(text "add_sub" (rect 0 0 49 14)(font "Arial" (font_size 8)))
		(text "add_sub" (rect 21 59 70 73)(font "Arial" (font_size 8)))
		(line (pt 0 64)(pt 16 64))
	)
	(port
		(pt 0 80)
		(input)
		(text "add_toggle" (rect 0 0 62 14)(font "Arial" (font_size 8)))
		(text "add_toggle" (rect 21 75 83 89)(font "Arial" (font_size 8)))
		(line (pt 0 80)(pt 16 80))
	)
	(port
		(pt 0 96)
		(input)
		(text "sub_toggle" (rect 0 0 62 14)(font "Arial" (font_size 8)))
		(text "sub_toggle" (rect 21 91 83 105)(font "Arial" (font_size 8)))
		(line (pt 0 96)(pt 16 96))
	)
	(port
		(pt 0 112)
		(input)
		(text "clk" (rect 0 0 15 14)(font "Arial" (font_size 8)))
		(text "clk" (rect 21 107 36 121)(font "Arial" (font_size 8)))
		(line (pt 0 112)(pt 16 112))
	)
	(port
		(pt 136 32)
		(output)
		(text "sum" (rect 0 0 23 14)(font "Arial" (font_size 8)))
		(text "sum" (rect 92 27 115 41)(font "Arial" (font_size 8)))
		(line (pt 136 32)(pt 120 32))
	)
	(drawing
		(rectangle (rect 16 16 120 144))
	)
)
(symbol
	(rect 392 -24 528 136)
	(text "add_dff" (rect 5 0 49 14)(font "Arial" (font_size 8)))
	(text "inst1" (rect 8 144 31 156)(font "Arial" ))
	(port
		(pt 0 32)
		(input)
		(text "reset" (rect 0 0 29 14)(font "Arial" (font_size 8)))
		(text "reset" (rect 21 27 50 41)(font "Arial" (font_size 8)))
		(line (pt 0 32)(pt 16 32))
	)
	(port
		(pt 0 48)
		(input)
		(text "enable" (rect 0 0 37 14)(font "Arial" (font_size 8)))
		(text "enable" (rect 21 43 58 57)(font "Arial" (font_size 8)))
		(line (pt 0 48)(pt 16 48))
	)
	(port
		(pt 0 64)
		(input)
		(text "add_sub" (rect 0 0 49 14)(font "Arial" (font_size 8)))
		(text "add_sub" (rect 21 59 70 73)(font "Arial" (font_size 8)))
		(line (pt 0 64)(pt 16 64))
	)
	(port
		(pt 0 80)
		(input)
		(text "add_toggle" (rect 0 0 62 14)(font "Arial" (font_size 8)))
		(text "add_toggle" (rect 21 75 83 89)(font "Arial" (font_size 8)))
		(line (pt 0 80)(pt 16 80))
	)
	(port
		(pt 0 96)
		(input)
		(text "sub_toggle" (rect 0 0 62 14)(font "Arial" (font_size 8)))
		(text "sub_toggle" (rect 21 91 83 105)(font "Arial" (font_size 8)))
		(line (pt 0 96)(pt 16 96))
	)
	(port
		(pt 0 112)
		(input)
		(text "clk" (rect 0 0 15 14)(font "Arial" (font_size 8)))
		(text "clk" (rect 21 107 36 121)(font "Arial" (font_size 8)))
		(line (pt 0 112)(pt 16 112))
	)
	(port
		(pt 136 32)
		(output)
		(text "sum" (rect 0 0 23 14)(font "Arial" (font_size 8)))
		(text "sum" (rect 92 27 115 41)(font "Arial" (font_size 8)))
		(line (pt 136 32)(pt 120 32))
	)
	(drawing
		(rectangle (rect 16 16 120 144))
	)
)
(symbol
	(rect 464 192 600 352)
	(text "add_dff" (rect 5 0 49 14)(font "Arial" (font_size 8)))
	(text "inst2" (rect 8 144 31 156)(font "Arial" ))
	(port
		(pt 0 32)
		(input)
		(text "reset" (rect 0 0 29 14)(font "Arial" (font_size 8)))
		(text "reset" (rect 21 27 50 41)(font "Arial" (font_size 8)))
		(line (pt 0 32)(pt 16 32))
	)
	(port
		(pt 0 48)
		(input)
		(text "enable" (rect 0 0 37 14)(font "Arial" (font_size 8)))
		(text "enable" (rect 21 43 58 57)(font "Arial" (font_size 8)))
		(line (pt 0 48)(pt 16 48))
	)
	(port
		(pt 0 64)
		(input)
		(text "add_sub" (rect 0 0 49 14)(font "Arial" (font_size 8)))
		(text "add_sub" (rect 21 59 70 73)(font "Arial" (font_size 8)))
		(line (pt 0 64)(pt 16 64))
	)
	(port
		(pt 0 80)
		(input)
		(text "add_toggle" (rect 0 0 62 14)(font "Arial" (font_size 8)))
		(text "add_toggle" (rect 21 75 83 89)(font "Arial" (font_size 8)))
		(line (pt 0 80)(pt 16 80))
	)
	(port
		(pt 0 96)
		(input)
		(text "sub_toggle" (rect 0 0 62 14)(font "Arial" (font_size 8)))
		(text "sub_toggle" (rect 21 91 83 105)(font "Arial" (font_size 8)))
		(line (pt 0 96)(pt 16 96))
	)
	(port
		(pt 0 112)
		(input)
		(text "clk" (rect 0 0 15 14)(font "Arial" (font_size 8)))
		(text "clk" (rect 21 107 36 121)(font "Arial" (font_size 8)))
		(line (pt 0 112)(pt 16 112))
	)
	(port
		(pt 136 32)
		(output)
		(text "sum" (rect 0 0 23 14)(font "Arial" (font_size 8)))
		(text "sum" (rect 92 27 115 41)(font "Arial" (font_size 8)))
		(line (pt 136 32)(pt 120 32))
	)
	(drawing
		(rectangle (rect 16 16 120 144))
	)
)
(symbol
	(rect 464 400 600 560)
	(text "add_dff" (rect 5 0 49 14)(font "Arial" (font_size 8)))
	(text "inst3" (rect 8 144 31 156)(font "Arial" ))
	(port
		(pt 0 32)
		(input)
		(text "reset" (rect 0 0 29 14)(font "Arial" (font_size 8)))
		(text "reset" (rect 21 27 50 41)(font "Arial" (font_size 8)))
		(line (pt 0 32)(pt 16 32))
	)
	(port
		(pt 0 48)
		(input)
		(text "enable" (rect 0 0 37 14)(font "Arial" (font_size 8)))
		(text "enable" (rect 21 43 58 57)(font "Arial" (font_size 8)))
		(line (pt 0 48)(pt 16 48))
	)
	(port
		(pt 0 64)
		(input)
		(text "add_sub" (rect 0 0 49 14)(font "Arial" (font_size 8)))
		(text "add_sub" (rect 21 59 70 73)(font "Arial" (font_size 8)))
		(line (pt 0 64)(pt 16 64))
	)
	(port
		(pt 0 80)
		(input)
		(text "add_toggle" (rect 0 0 62 14)(font "Arial" (font_size 8)))
		(text "add_toggle" (rect 21 75 83 89)(font "Arial" (font_size 8)))
		(line (pt 0 80)(pt 16 80))
	)
	(port
		(pt 0 96)
		(input)
		(text "sub_toggle" (rect 0 0 62 14)(font "Arial" (font_size 8)))
		(text "sub_toggle" (rect 21 91 83 105)(font "Arial" (font_size 8)))
		(line (pt 0 96)(pt 16 96))
	)
	(port
		(pt 0 112)
		(input)
		(text "clk" (rect 0 0 15 14)(font "Arial" (font_size 8)))
		(text "clk" (rect 21 107 36 121)(font "Arial" (font_size 8)))
		(line (pt 0 112)(pt 16 112))
	)
	(port
		(pt 136 32)
		(output)
		(text "sum" (rect 0 0 23 14)(font "Arial" (font_size 8)))
		(text "sum" (rect 92 27 115 41)(font "Arial" (font_size 8)))
		(line (pt 136 32)(pt 120 32))
	)
	(drawing
		(rectangle (rect 16 16 120 144))
	)
)
(symbol
	(rect 232 -264 264 -248)
	(text "VCC" (rect 7 0 27 10)(font "Arial" (font_size 6)))
	(text "inst8" (rect 3 5 26 17)(font "Arial" )(invisible))
	(port
		(pt 16 16)
		(output)
		(text "1" (rect 19 7 24 19)(font "Courier New" (bold))(invisible))
		(text "1" (rect 19 7 24 19)(font "Courier New" (bold))(invisible))
		(line (pt 16 16)(pt 16 8))
	)
	(drawing
		(line (pt 8 8)(pt 24 8))
	)
)
(symbol
	(rect 288 56 336 88)
	(text "NOT" (rect 1 0 21 10)(font "Arial" (font_size 6)))
	(text "inst9" (rect 3 21 26 33)(font "Arial" ))
	(port
		(pt 0 16)
		(input)
		(text "IN" (rect 2 7 13 19)(font "Courier New" (bold))(invisible))
		(text "IN" (rect 2 7 13 19)(font "Courier New" (bold))(invisible))
		(line (pt 0 16)(pt 13 16))
	)
	(port
		(pt 48 16)
		(output)
		(text "OUT" (rect 32 7 49 19)(font "Courier New" (bold))(invisible))
		(text "OUT" (rect 32 7 49 19)(font "Courier New" (bold))(invisible))
		(line (pt 39 16)(pt 48 16))
	)
	(drawing
		(line (pt 13 25)(pt 13 7))
		(line (pt 13 7)(pt 31 16))
		(line (pt 13 25)(pt 31 16))
		(circle (rect 31 12 39 20))
	)
)
(symbol
	(rect 288 256 352 304)
	(text "AND2" (rect 1 0 25 10)(font "Arial" (font_size 6)))
	(text "inst10" (rect 3 37 32 49)(font "Arial" ))
	(port
		(pt 0 16)
		(input)
		(text "IN1" (rect 2 7 19 19)(font "Courier New" (bold))(invisible))
		(text "IN1" (rect 2 7 19 19)(font "Courier New" (bold))(invisible))
		(line (pt 0 16)(pt 14 16))
	)
	(port
		(pt 0 32)
		(input)
		(text "IN2" (rect 2 23 19 35)(font "Courier New" (bold))(invisible))
		(text "IN2" (rect 2 23 19 35)(font "Courier New" (bold))(invisible))
		(line (pt 0 32)(pt 14 32))
	)
	(port
		(pt 64 24)
		(output)
		(text "OUT" (rect 48 15 65 27)(font "Courier New" (bold))(invisible))
		(text "OUT" (rect 48 15 65 27)(font "Courier New" (bold))(invisible))
		(line (pt 42 24)(pt 64 24))
	)
	(drawing
		(line (pt 14 12)(pt 30 12))
		(line (pt 14 37)(pt 31 37))
		(line (pt 14 12)(pt 14 37))
		(arc (pt 31 37)(pt 30 12)(rect 18 12 43 37))
	)
)
(symbol
	(rect 288 312 352 360)
	(text "NOR2" (rect 1 0 26 10)(font "Arial" (font_size 6)))
	(text "inst11" (rect 3 37 32 49)(font "Arial" ))
	(port
		(pt 0 32)
		(input)
		(text "IN2" (rect 2 23 19 35)(font "Courier New" (bold))(invisible))
		(text "IN2" (rect 2 23 19 35)(font "Courier New" (bold))(invisible))
		(line (pt 0 32)(pt 14 32))
	)
	(port
		(pt 0 16)
		(input)
		(text "IN1" (rect 2 7 19 19)(font "Courier New" (bold))(invisible))
		(text "IN1" (rect 2 7 19 19)(font "Courier New" (bold))(invisible))
		(line (pt 0 16)(pt 14 16))
	)
	(port
		(pt 64 24)
		(output)
		(text "OUT" (rect 48 15 65 27)(font "Courier New" (bold))(invisible))
		(text "OUT" (rect 48 15 65 27)(font "Courier New" (bold))(invisible))
		(line (pt 54 24)(pt 64 24))
	)
	(drawing
		(line (pt 12 36)(pt 23 36))
		(line (pt 12 13)(pt 23 13))
		(arc (pt 46 24)(pt 23 13)(rect -6 13 53 72))
		(arc (pt 5 29)(pt 5 19)(rect -16 8 17 41))
		(arc (pt 23 35)(pt 46 24)(rect -6 -23 53 36))
		(circle (rect 46 20 54 28))
	)
)
(symbol
	(rect 320 464 384 512)
	(text "AND3" (rect 1 0 25 10)(font "Arial" (font_size 6)))
	(text "inst12" (rect 3 37 32 49)(font "Arial" ))
	(port
		(pt 0 16)
		(input)
		(text "IN1" (rect 2 7 19 19)(font "Courier New" (bold))(invisible))
		(text "IN1" (rect 2 7 19 19)(font "Courier New" (bold))(invisible))
		(line (pt 0 16)(pt 16 16))
	)
	(port
		(pt 0 24)
		(input)
		(text "IN2" (rect 2 15 19 27)(font "Courier New" (bold))(invisible))
		(text "IN2" (rect 2 15 19 27)(font "Courier New" (bold))(invisible))
		(line (pt 0 24)(pt 16 24))
	)
	(port
		(pt 0 32)
		(input)
		(text "IN3" (rect 2 23 19 35)(font "Courier New" (bold))(invisible))
		(text "IN3" (rect 2 23 19 35)(font "Courier New" (bold))(invisible))
		(line (pt 0 32)(pt 16 32))
	)
	(port
		(pt 64 24)
		(output)
		(text "OUT" (rect 48 15 65 27)(font "Courier New" (bold))(invisible))
		(text "OUT" (rect 48 15 65 27)(font "Courier New" (bold))(invisible))
		(line (pt 43 24)(pt 64 24))
	)
	(drawing
		(line (pt 16 12)(pt 31 12))
		(line (pt 16 37)(pt 31 37))
		(line (pt 16 12)(pt 16 37))
		(arc (pt 31 36)(pt 31 12)(rect 19 12 44 37))
	)
)
(symbol
	(rect 320 528 384 576)
	(text "NOR3" (rect 1 0 26 10)(font "Arial" (font_size 6)))
	(text "inst14" (rect 3 37 32 49)(font "Arial" ))
	(port
		(pt 0 16)
		(input)
		(text "IN1" (rect 2 7 19 19)(font "Courier New" (bold))(invisible))
		(text "IN1" (rect 2 7 19 19)(font "Courier New" (bold))(invisible))
		(line (pt 0 16)(pt 14 16))
	)
	(port
		(pt 0 24)
		(input)
		(text "IN2" (rect 2 15 19 27)(font "Courier New" (bold))(invisible))
		(text "IN2" (rect 2 15 19 27)(font "Courier New" (bold))(invisible))
		(line (pt 0 24)(pt 16 24))
	)
	(port
		(pt 0 32)
		(input)
		(text "IN3" (rect 2 23 19 35)(font "Courier New" (bold))(invisible))
		(text "IN3" (rect 2 23 19 35)(font "Courier New" (bold))(invisible))
		(line (pt 0 32)(pt 14 32))
	)
	(port
		(pt 64 24)
		(output)
		(text "OUT" (rect 48 15 65 27)(font "Courier New" (bold))(invisible))
		(text "OUT" (rect 48 15 65 27)(font "Courier New" (bold))(invisible))
		(line (pt 54 24)(pt 64 24))
	)
	(drawing
		(line (pt 12 13)(pt 23 13))
		(line (pt 12 36)(pt 23 36))
		(arc (pt 5 29)(pt 5 19)(rect -16 8 17 41))
		(arc (pt 23 35)(pt 46 24)(rect -6 -23 53 36))
		(arc (pt 46 24)(pt 23 13)(rect -6 13 53 72))
		(circle (rect 46 20 54 28))
	)
)
(connector
	(pt 192 -200)
	(pt 296 -200)
)
(connector
	(pt 176 -184)
	(pt 296 -184)
)
(connector
	(pt 152 -120)
	(pt 168 -120)
)
(connector
	(pt 168 -120)
	(pt 296 -120)
)
(connector
	(pt 176 -216)
	(pt 152 -216)
)
(connector
	(pt 176 -216)
	(pt 176 -184)
)
(connector
	(pt 192 -264)
	(pt 152 -264)
)
(connector
	(pt 192 -264)
	(pt 192 -200)
)
(connector
	(pt 488 -48)
	(pt 240 -48)
)
(connector
	(pt 248 -136)
	(pt 296 -136)
)
(connector
	(pt 296 -152)
	(pt 248 -152)
)
(connector
	(pt 248 -248)
	(pt 248 -152)
)
(connector
	(pt 248 -152)
	(pt 248 -136)
)
(connector
	(pt 152 -168)
	(pt 208 -168)
)
(connector
	(pt 208 -168)
	(pt 296 -168)
)
(connector
	(pt 192 -200)
	(pt 192 8)
)
(connector
	(pt 176 -184)
	(pt 176 24)
)
(connector
	(pt 168 -120)
	(pt 168 88)
)
(connector
	(pt 208 -168)
	(pt 208 40)
)
(connector
	(pt 192 8)
	(pt 392 8)
)
(connector
	(pt 176 24)
	(pt 392 24)
)
(connector
	(pt 208 40)
	(pt 392 40)
)
(connector
	(pt 240 56)
	(pt 392 56)
)
(connector
	(pt 168 88)
	(pt 392 88)
)
(connector
	(pt 240 72)
	(pt 288 72)
)
(connector
	(pt 240 -48)
	(pt 240 56)
)
(connector
	(pt 336 72)
	(pt 392 72)
)
(connector
	(pt 176 240)
	(pt 464 240)
)
(connector
	(pt 208 256)
	(pt 464 256)
)
(connector
	(pt 192 224)
	(pt 464 224)
)
(connector
	(pt 464 304)
	(pt 456 304)
)
(connector
	(pt 456 304)
	(pt 456 368)
)
(connector
	(pt 168 368)
	(pt 456 368)
)
(connector
	(pt 552 8)
	(pt 552 152)
)
(connector
	(pt 552 152)
	(pt 264 152)
)
(connector
	(pt 264 272)
	(pt 288 272)
)
(connector
	(pt 240 288)
	(pt 288 288)
)
(connector
	(pt 240 56)
	(pt 240 72)
)
(connector
	(pt 352 280)
	(pt 416 280)
)
(connector
	(pt 416 280)
	(pt 416 272)
)
(connector
	(pt 416 272)
	(pt 464 272)
)
(connector
	(pt 264 328)
	(pt 288 328)
)
(connector
	(pt 264 152)
	(pt 264 272)
)
(connector
	(pt 240 344)
	(pt 288 344)
)
(connector
	(pt 240 72)
	(pt 240 288)
)
(connector
	(pt 352 336)
	(pt 440 336)
)
(connector
	(pt 440 336)
	(pt 440 288)
)
(connector
	(pt 440 288)
	(pt 464 288)
)
(connector
	(pt 168 88)
	(pt 168 368)
)
(connector
	(pt 168 368)
	(pt 168 624)
)
(connector
	(pt 240 288)
	(pt 240 344)
)
(connector
	(pt 264 272)
	(pt 264 328)
)
(connector
	(pt 432 -200)
	(pt 488 -200)
)
(connector
	(pt 600 224)
	(pt 616 224)
)
(connector
	(pt 528 8)
	(pt 552 8)
)
(connector
	(pt 552 8)
	(pt 680 8)
)
(connector
	(pt 616 56)
	(pt 680 56)
)
(connector
	(pt 616 56)
	(pt 616 224)
)
(connector
	(pt 616 224)
	(pt 616 384)
)
(connector
	(pt 488 -32)
	(pt 680 -32)
)
(connector
	(pt 488 -200)
	(pt 488 -48)
)
(connector
	(pt 488 -48)
	(pt 488 -32)
)
(connector
	(pt 616 384)
	(pt 288 384)
)
(connector
	(pt 264 552)
	(pt 320 552)
)
(connector
	(pt 240 560)
	(pt 320 560)
)
(connector
	(pt 288 544)
	(pt 320 544)
)
(connector
	(pt 288 480)
	(pt 320 480)
)
(connector
	(pt 264 488)
	(pt 320 488)
)
(connector
	(pt 240 496)
	(pt 320 496)
)
(connector
	(pt 288 384)
	(pt 288 480)
)
(connector
	(pt 288 480)
	(pt 288 544)
)
(connector
	(pt 264 328)
	(pt 264 488)
)
(connector
	(pt 264 488)
	(pt 264 552)
)
(connector
	(pt 240 344)
	(pt 240 496)
)
(connector
	(pt 240 496)
	(pt 240 560)
)
(connector
	(pt 384 552)
	(pt 400 552)
)
(connector
	(pt 384 488)
	(pt 400 488)
)
(connector
	(pt 168 624)
	(pt 416 624)
)
(connector
	(pt 680 96)
	(pt 648 96)
)
(connector
	(pt 400 552)
	(pt 400 496)
)
(connector
	(pt 400 488)
	(pt 400 480)
)
(connector
	(pt 416 624)
	(pt 416 512)
)
(connector
	(pt 648 96)
	(pt 648 432)
)
(connector
	(pt 648 432)
	(pt 600 432)
)
(connector
	(pt 192 8)
	(pt 192 224)
)
(connector
	(pt 192 224)
	(pt 192 432)
)
(connector
	(pt 176 24)
	(pt 176 240)
)
(connector
	(pt 176 240)
	(pt 176 448)
)
(connector
	(pt 208 40)
	(pt 208 256)
)
(connector
	(pt 208 256)
	(pt 208 464)
)
(connector
	(pt 192 432)
	(pt 464 432)
)
(connector
	(pt 176 448)
	(pt 464 448)
)
(connector
	(pt 208 464)
	(pt 464 464)
)
(connector
	(pt 400 480)
	(pt 464 480)
)
(connector
	(pt 400 496)
	(pt 464 496)
)
(connector
	(pt 416 512)
	(pt 464 512)
)
(junction (pt 192 -200))
(junction (pt 192 8))
(junction (pt 192 224))
(junction (pt 176 24))
(junction (pt 176 240))
(junction (pt 168 88))
(junction (pt 176 -184))
(junction (pt 168 -120))
(junction (pt 248 -152))
(junction (pt 208 -168))
(junction (pt 208 40))
(junction (pt 208 256))
(junction (pt 240 56))
(junction (pt 168 368))
(junction (pt 240 72))
(junction (pt 264 272))
(junction (pt 240 288))
(junction (pt 240 344))
(junction (pt 264 328))
(junction (pt 264 488))
(junction (pt 240 496))
(junction (pt 552 8))
(junction (pt 616 224))
(junction (pt 488 -48))
(junction (pt 288 480))
