+----------------------------------------------------------------------------------------------------------------------------------------------------------------------------------------------------------------------------------------------------------------------------------------------------+
; Legal Partition Candidates                                                                                                                                                                                                                                                                         ;
+-----------------------------------------------------------------------------------------------+-------+----------------+--------------+----------------+--------+-----------------+---------------+-----------------+-------+----------------+--------------+------------------+-------------------+
; Hierarchy                                                                                     ; Input ; Constant Input ; Unused Input ; Floating Input ; Output ; Constant Output ; Unused Output ; Floating Output ; Bidir ; Constant Bidir ; Unused Bidir ; Input only Bidir ; Output only Bidir ;
+-----------------------------------------------------------------------------------------------+-------+----------------+--------------+----------------+--------+-----------------+---------------+-----------------+-------+----------------+--------------+------------------+-------------------+
; vga2X|\GEN_vga_word_parse_out:6:vga_word_parse_outX|\GEN_vga_letter_parse:8:vga_letter_parseX ; 8     ; 0              ; 0            ; 0              ; 80     ; 0               ; 0             ; 0               ; 0     ; 0              ; 0            ; 0                ; 0                 ;
; vga2X|\GEN_vga_word_parse_out:6:vga_word_parse_outX|\GEN_vga_letter_parse:7:vga_letter_parseX ; 8     ; 0              ; 0            ; 0              ; 80     ; 0               ; 0             ; 0               ; 0     ; 0              ; 0            ; 0                ; 0                 ;
; vga2X|\GEN_vga_word_parse_out:6:vga_word_parse_outX|\GEN_vga_letter_parse:6:vga_letter_parseX ; 8     ; 0              ; 0            ; 0              ; 80     ; 0               ; 0             ; 0               ; 0     ; 0              ; 0            ; 0                ; 0                 ;
; vga2X|\GEN_vga_word_parse_out:6:vga_word_parse_outX|\GEN_vga_letter_parse:5:vga_letter_parseX ; 8     ; 0              ; 0            ; 0              ; 80     ; 0               ; 0             ; 0               ; 0     ; 0              ; 0            ; 0                ; 0                 ;
; vga2X|\GEN_vga_word_parse_out:6:vga_word_parse_outX|\GEN_vga_letter_parse:4:vga_letter_parseX ; 8     ; 0              ; 0            ; 0              ; 80     ; 0               ; 0             ; 0               ; 0     ; 0              ; 0            ; 0                ; 0                 ;
; vga2X|\GEN_vga_word_parse_out:6:vga_word_parse_outX|\GEN_vga_letter_parse:3:vga_letter_parseX ; 8     ; 0              ; 0            ; 0              ; 80     ; 0               ; 0             ; 0               ; 0     ; 0              ; 0            ; 0                ; 0                 ;
; vga2X|\GEN_vga_word_parse_out:6:vga_word_parse_outX|\GEN_vga_letter_parse:2:vga_letter_parseX ; 8     ; 0              ; 0            ; 0              ; 80     ; 0               ; 0             ; 0               ; 0     ; 0              ; 0            ; 0                ; 0                 ;
; vga2X|\GEN_vga_word_parse_out:6:vga_word_parse_outX|\GEN_vga_letter_parse:1:vga_letter_parseX ; 8     ; 0              ; 0            ; 0              ; 80     ; 0               ; 0             ; 0               ; 0     ; 0              ; 0            ; 0                ; 0                 ;
; vga2X|\GEN_vga_word_parse_out:6:vga_word_parse_outX                                           ; 64    ; 0              ; 0            ; 0              ; 640    ; 0               ; 0             ; 0               ; 0     ; 0              ; 0            ; 0                ; 0                 ;
; vga2X|\GEN_vga_word_parse_out:5:vga_word_parse_outX|\GEN_vga_letter_parse:8:vga_letter_parseX ; 8     ; 0              ; 0            ; 0              ; 80     ; 0               ; 0             ; 0               ; 0     ; 0              ; 0            ; 0                ; 0                 ;
; vga2X|\GEN_vga_word_parse_out:5:vga_word_parse_outX|\GEN_vga_letter_parse:7:vga_letter_parseX ; 8     ; 0              ; 0            ; 0              ; 80     ; 0               ; 0             ; 0               ; 0     ; 0              ; 0            ; 0                ; 0                 ;
; vga2X|\GEN_vga_word_parse_out:5:vga_word_parse_outX|\GEN_vga_letter_parse:6:vga_letter_parseX ; 8     ; 0              ; 0            ; 0              ; 80     ; 0               ; 0             ; 0               ; 0     ; 0              ; 0            ; 0                ; 0                 ;
; vga2X|\GEN_vga_word_parse_out:5:vga_word_parse_outX|\GEN_vga_letter_parse:5:vga_letter_parseX ; 8     ; 0              ; 0            ; 0              ; 80     ; 0               ; 0             ; 0               ; 0     ; 0              ; 0            ; 0                ; 0                 ;
; vga2X|\GEN_vga_word_parse_out:5:vga_word_parse_outX|\GEN_vga_letter_parse:4:vga_letter_parseX ; 8     ; 0              ; 0            ; 0              ; 80     ; 0               ; 0             ; 0               ; 0     ; 0              ; 0            ; 0                ; 0                 ;
; vga2X|\GEN_vga_word_parse_out:5:vga_word_parse_outX|\GEN_vga_letter_parse:3:vga_letter_parseX ; 8     ; 0              ; 0            ; 0              ; 80     ; 0               ; 0             ; 0               ; 0     ; 0              ; 0            ; 0                ; 0                 ;
; vga2X|\GEN_vga_word_parse_out:5:vga_word_parse_outX|\GEN_vga_letter_parse:2:vga_letter_parseX ; 8     ; 0              ; 0            ; 0              ; 80     ; 0               ; 0             ; 0               ; 0     ; 0              ; 0            ; 0                ; 0                 ;
; vga2X|\GEN_vga_word_parse_out:5:vga_word_parse_outX|\GEN_vga_letter_parse:1:vga_letter_parseX ; 8     ; 0              ; 0            ; 0              ; 80     ; 0               ; 0             ; 0               ; 0     ; 0              ; 0            ; 0                ; 0                 ;
; vga2X|\GEN_vga_word_parse_out:5:vga_word_parse_outX                                           ; 64    ; 0              ; 0            ; 0              ; 640    ; 0               ; 0             ; 0               ; 0     ; 0              ; 0            ; 0                ; 0                 ;
; vga2X|\GEN_vga_word_parse_out:4:vga_word_parse_outX|\GEN_vga_letter_parse:8:vga_letter_parseX ; 8     ; 0              ; 0            ; 0              ; 80     ; 0               ; 0             ; 0               ; 0     ; 0              ; 0            ; 0                ; 0                 ;
; vga2X|\GEN_vga_word_parse_out:4:vga_word_parse_outX|\GEN_vga_letter_parse:7:vga_letter_parseX ; 8     ; 0              ; 0            ; 0              ; 80     ; 0               ; 0             ; 0               ; 0     ; 0              ; 0            ; 0                ; 0                 ;
; vga2X|\GEN_vga_word_parse_out:4:vga_word_parse_outX|\GEN_vga_letter_parse:6:vga_letter_parseX ; 8     ; 0              ; 0            ; 0              ; 80     ; 0               ; 0             ; 0               ; 0     ; 0              ; 0            ; 0                ; 0                 ;
; vga2X|\GEN_vga_word_parse_out:4:vga_word_parse_outX|\GEN_vga_letter_parse:5:vga_letter_parseX ; 8     ; 0              ; 0            ; 0              ; 80     ; 0               ; 0             ; 0               ; 0     ; 0              ; 0            ; 0                ; 0                 ;
; vga2X|\GEN_vga_word_parse_out:4:vga_word_parse_outX|\GEN_vga_letter_parse:4:vga_letter_parseX ; 8     ; 0              ; 0            ; 0              ; 80     ; 0               ; 0             ; 0               ; 0     ; 0              ; 0            ; 0                ; 0                 ;
; vga2X|\GEN_vga_word_parse_out:4:vga_word_parse_outX|\GEN_vga_letter_parse:3:vga_letter_parseX ; 8     ; 0              ; 0            ; 0              ; 80     ; 0               ; 0             ; 0               ; 0     ; 0              ; 0            ; 0                ; 0                 ;
; vga2X|\GEN_vga_word_parse_out:4:vga_word_parse_outX|\GEN_vga_letter_parse:2:vga_letter_parseX ; 8     ; 0              ; 0            ; 0              ; 80     ; 0               ; 0             ; 0               ; 0     ; 0              ; 0            ; 0                ; 0                 ;
; vga2X|\GEN_vga_word_parse_out:4:vga_word_parse_outX|\GEN_vga_letter_parse:1:vga_letter_parseX ; 8     ; 0              ; 0            ; 0              ; 80     ; 0               ; 0             ; 0               ; 0     ; 0              ; 0            ; 0                ; 0                 ;
; vga2X|\GEN_vga_word_parse_out:4:vga_word_parse_outX                                           ; 64    ; 0              ; 0            ; 0              ; 640    ; 0               ; 0             ; 0               ; 0     ; 0              ; 0            ; 0                ; 0                 ;
; vga2X|\GEN_vga_word_parse_out:3:vga_word_parse_outX|\GEN_vga_letter_parse:8:vga_letter_parseX ; 8     ; 0              ; 0            ; 0              ; 80     ; 0               ; 0             ; 0               ; 0     ; 0              ; 0            ; 0                ; 0                 ;
; vga2X|\GEN_vga_word_parse_out:3:vga_word_parse_outX|\GEN_vga_letter_parse:7:vga_letter_parseX ; 8     ; 0              ; 0            ; 0              ; 80     ; 0               ; 0             ; 0               ; 0     ; 0              ; 0            ; 0                ; 0                 ;
; vga2X|\GEN_vga_word_parse_out:3:vga_word_parse_outX|\GEN_vga_letter_parse:6:vga_letter_parseX ; 8     ; 0              ; 0            ; 0              ; 80     ; 0               ; 0             ; 0               ; 0     ; 0              ; 0            ; 0                ; 0                 ;
; vga2X|\GEN_vga_word_parse_out:3:vga_word_parse_outX|\GEN_vga_letter_parse:5:vga_letter_parseX ; 8     ; 0              ; 0            ; 0              ; 80     ; 0               ; 0             ; 0               ; 0     ; 0              ; 0            ; 0                ; 0                 ;
; vga2X|\GEN_vga_word_parse_out:3:vga_word_parse_outX|\GEN_vga_letter_parse:4:vga_letter_parseX ; 8     ; 0              ; 0            ; 0              ; 80     ; 0               ; 0             ; 0               ; 0     ; 0              ; 0            ; 0                ; 0                 ;
; vga2X|\GEN_vga_word_parse_out:3:vga_word_parse_outX|\GEN_vga_letter_parse:3:vga_letter_parseX ; 8     ; 0              ; 0            ; 0              ; 80     ; 0               ; 0             ; 0               ; 0     ; 0              ; 0            ; 0                ; 0                 ;
; vga2X|\GEN_vga_word_parse_out:3:vga_word_parse_outX|\GEN_vga_letter_parse:2:vga_letter_parseX ; 8     ; 0              ; 0            ; 0              ; 80     ; 0               ; 0             ; 0               ; 0     ; 0              ; 0            ; 0                ; 0                 ;
; vga2X|\GEN_vga_word_parse_out:3:vga_word_parse_outX|\GEN_vga_letter_parse:1:vga_letter_parseX ; 8     ; 0              ; 0            ; 0              ; 80     ; 0               ; 0             ; 0               ; 0     ; 0              ; 0            ; 0                ; 0                 ;
; vga2X|\GEN_vga_word_parse_out:3:vga_word_parse_outX                                           ; 64    ; 0              ; 0            ; 0              ; 640    ; 0               ; 0             ; 0               ; 0     ; 0              ; 0            ; 0                ; 0                 ;
; vga2X|\GEN_vga_word_parse_out:2:vga_word_parse_outX|\GEN_vga_letter_parse:8:vga_letter_parseX ; 8     ; 0              ; 0            ; 0              ; 80     ; 0               ; 0             ; 0               ; 0     ; 0              ; 0            ; 0                ; 0                 ;
; vga2X|\GEN_vga_word_parse_out:2:vga_word_parse_outX|\GEN_vga_letter_parse:7:vga_letter_parseX ; 8     ; 0              ; 0            ; 0              ; 80     ; 0               ; 0             ; 0               ; 0     ; 0              ; 0            ; 0                ; 0                 ;
; vga2X|\GEN_vga_word_parse_out:2:vga_word_parse_outX|\GEN_vga_letter_parse:6:vga_letter_parseX ; 8     ; 0              ; 0            ; 0              ; 80     ; 0               ; 0             ; 0               ; 0     ; 0              ; 0            ; 0                ; 0                 ;
; vga2X|\GEN_vga_word_parse_out:2:vga_word_parse_outX|\GEN_vga_letter_parse:5:vga_letter_parseX ; 8     ; 0              ; 0            ; 0              ; 80     ; 0               ; 0             ; 0               ; 0     ; 0              ; 0            ; 0                ; 0                 ;
; vga2X|\GEN_vga_word_parse_out:2:vga_word_parse_outX|\GEN_vga_letter_parse:4:vga_letter_parseX ; 8     ; 0              ; 0            ; 0              ; 80     ; 0               ; 0             ; 0               ; 0     ; 0              ; 0            ; 0                ; 0                 ;
; vga2X|\GEN_vga_word_parse_out:2:vga_word_parse_outX|\GEN_vga_letter_parse:3:vga_letter_parseX ; 8     ; 0              ; 0            ; 0              ; 80     ; 0               ; 0             ; 0               ; 0     ; 0              ; 0            ; 0                ; 0                 ;
; vga2X|\GEN_vga_word_parse_out:2:vga_word_parse_outX|\GEN_vga_letter_parse:2:vga_letter_parseX ; 8     ; 0              ; 0            ; 0              ; 80     ; 0               ; 0             ; 0               ; 0     ; 0              ; 0            ; 0                ; 0                 ;
; vga2X|\GEN_vga_word_parse_out:2:vga_word_parse_outX|\GEN_vga_letter_parse:1:vga_letter_parseX ; 8     ; 0              ; 0            ; 0              ; 80     ; 0               ; 0             ; 0               ; 0     ; 0              ; 0            ; 0                ; 0                 ;
; vga2X|\GEN_vga_word_parse_out:2:vga_word_parse_outX                                           ; 64    ; 0              ; 0            ; 0              ; 640    ; 0               ; 0             ; 0               ; 0     ; 0              ; 0            ; 0                ; 0                 ;
; vga2X|\GEN_vga_word_parse_out:1:vga_word_parse_outX|\GEN_vga_letter_parse:8:vga_letter_parseX ; 8     ; 0              ; 0            ; 0              ; 80     ; 0               ; 0             ; 0               ; 0     ; 0              ; 0            ; 0                ; 0                 ;
; vga2X|\GEN_vga_word_parse_out:1:vga_word_parse_outX|\GEN_vga_letter_parse:7:vga_letter_parseX ; 8     ; 0              ; 0            ; 0              ; 80     ; 0               ; 0             ; 0               ; 0     ; 0              ; 0            ; 0                ; 0                 ;
; vga2X|\GEN_vga_word_parse_out:1:vga_word_parse_outX|\GEN_vga_letter_parse:6:vga_letter_parseX ; 8     ; 0              ; 0            ; 0              ; 80     ; 0               ; 0             ; 0               ; 0     ; 0              ; 0            ; 0                ; 0                 ;
; vga2X|\GEN_vga_word_parse_out:1:vga_word_parse_outX|\GEN_vga_letter_parse:5:vga_letter_parseX ; 8     ; 0              ; 0            ; 0              ; 80     ; 0               ; 0             ; 0               ; 0     ; 0              ; 0            ; 0                ; 0                 ;
; vga2X|\GEN_vga_word_parse_out:1:vga_word_parse_outX|\GEN_vga_letter_parse:4:vga_letter_parseX ; 8     ; 0              ; 0            ; 0              ; 80     ; 0               ; 0             ; 0               ; 0     ; 0              ; 0            ; 0                ; 0                 ;
; vga2X|\GEN_vga_word_parse_out:1:vga_word_parse_outX|\GEN_vga_letter_parse:3:vga_letter_parseX ; 8     ; 0              ; 0            ; 0              ; 80     ; 0               ; 0             ; 0               ; 0     ; 0              ; 0            ; 0                ; 0                 ;
; vga2X|\GEN_vga_word_parse_out:1:vga_word_parse_outX|\GEN_vga_letter_parse:2:vga_letter_parseX ; 8     ; 0              ; 0            ; 0              ; 80     ; 0               ; 0             ; 0               ; 0     ; 0              ; 0            ; 0                ; 0                 ;
; vga2X|\GEN_vga_word_parse_out:1:vga_word_parse_outX|\GEN_vga_letter_parse:1:vga_letter_parseX ; 8     ; 0              ; 0            ; 0              ; 80     ; 0               ; 0             ; 0               ; 0     ; 0              ; 0            ; 0                ; 0                 ;
; vga2X|\GEN_vga_word_parse_out:1:vga_word_parse_outX                                           ; 64    ; 0              ; 0            ; 0              ; 640    ; 0               ; 0             ; 0               ; 0     ; 0              ; 0            ; 0                ; 0                 ;
; vga2X|\GEN_vga_word_parse_in:6:vga_word_parse_inX|\GEN_vga_letter_parse:8:vga_letter_parseX   ; 8     ; 0              ; 0            ; 0              ; 80     ; 0               ; 0             ; 0               ; 0     ; 0              ; 0            ; 0                ; 0                 ;
; vga2X|\GEN_vga_word_parse_in:6:vga_word_parse_inX|\GEN_vga_letter_parse:7:vga_letter_parseX   ; 8     ; 0              ; 0            ; 0              ; 80     ; 0               ; 0             ; 0               ; 0     ; 0              ; 0            ; 0                ; 0                 ;
; vga2X|\GEN_vga_word_parse_in:6:vga_word_parse_inX|\GEN_vga_letter_parse:6:vga_letter_parseX   ; 8     ; 0              ; 0            ; 0              ; 80     ; 0               ; 0             ; 0               ; 0     ; 0              ; 0            ; 0                ; 0                 ;
; vga2X|\GEN_vga_word_parse_in:6:vga_word_parse_inX|\GEN_vga_letter_parse:5:vga_letter_parseX   ; 8     ; 0              ; 0            ; 0              ; 80     ; 0               ; 0             ; 0               ; 0     ; 0              ; 0            ; 0                ; 0                 ;
; vga2X|\GEN_vga_word_parse_in:6:vga_word_parse_inX|\GEN_vga_letter_parse:4:vga_letter_parseX   ; 8     ; 0              ; 0            ; 0              ; 80     ; 0               ; 0             ; 0               ; 0     ; 0              ; 0            ; 0                ; 0                 ;
; vga2X|\GEN_vga_word_parse_in:6:vga_word_parse_inX|\GEN_vga_letter_parse:3:vga_letter_parseX   ; 8     ; 0              ; 0            ; 0              ; 80     ; 0               ; 0             ; 0               ; 0     ; 0              ; 0            ; 0                ; 0                 ;
; vga2X|\GEN_vga_word_parse_in:6:vga_word_parse_inX|\GEN_vga_letter_parse:2:vga_letter_parseX   ; 8     ; 0              ; 0            ; 0              ; 80     ; 0               ; 0             ; 0               ; 0     ; 0              ; 0            ; 0                ; 0                 ;
; vga2X|\GEN_vga_word_parse_in:6:vga_word_parse_inX|\GEN_vga_letter_parse:1:vga_letter_parseX   ; 8     ; 0              ; 0            ; 0              ; 80     ; 0               ; 0             ; 0               ; 0     ; 0              ; 0            ; 0                ; 0                 ;
; vga2X|\GEN_vga_word_parse_in:6:vga_word_parse_inX                                             ; 64    ; 0              ; 0            ; 0              ; 640    ; 0               ; 0             ; 0               ; 0     ; 0              ; 0            ; 0                ; 0                 ;
; vga2X|\GEN_vga_word_parse_in:5:vga_word_parse_inX|\GEN_vga_letter_parse:8:vga_letter_parseX   ; 8     ; 0              ; 0            ; 0              ; 80     ; 0               ; 0             ; 0               ; 0     ; 0              ; 0            ; 0                ; 0                 ;
; vga2X|\GEN_vga_word_parse_in:5:vga_word_parse_inX|\GEN_vga_letter_parse:7:vga_letter_parseX   ; 8     ; 0              ; 0            ; 0              ; 80     ; 0               ; 0             ; 0               ; 0     ; 0              ; 0            ; 0                ; 0                 ;
; vga2X|\GEN_vga_word_parse_in:5:vga_word_parse_inX|\GEN_vga_letter_parse:6:vga_letter_parseX   ; 8     ; 0              ; 0            ; 0              ; 80     ; 0               ; 0             ; 0               ; 0     ; 0              ; 0            ; 0                ; 0                 ;
; vga2X|\GEN_vga_word_parse_in:5:vga_word_parse_inX|\GEN_vga_letter_parse:5:vga_letter_parseX   ; 8     ; 0              ; 0            ; 0              ; 80     ; 0               ; 0             ; 0               ; 0     ; 0              ; 0            ; 0                ; 0                 ;
; vga2X|\GEN_vga_word_parse_in:5:vga_word_parse_inX|\GEN_vga_letter_parse:4:vga_letter_parseX   ; 8     ; 0              ; 0            ; 0              ; 80     ; 0               ; 0             ; 0               ; 0     ; 0              ; 0            ; 0                ; 0                 ;
; vga2X|\GEN_vga_word_parse_in:5:vga_word_parse_inX|\GEN_vga_letter_parse:3:vga_letter_parseX   ; 8     ; 0              ; 0            ; 0              ; 80     ; 0               ; 0             ; 0               ; 0     ; 0              ; 0            ; 0                ; 0                 ;
; vga2X|\GEN_vga_word_parse_in:5:vga_word_parse_inX|\GEN_vga_letter_parse:2:vga_letter_parseX   ; 8     ; 0              ; 0            ; 0              ; 80     ; 0               ; 0             ; 0               ; 0     ; 0              ; 0            ; 0                ; 0                 ;
; vga2X|\GEN_vga_word_parse_in:5:vga_word_parse_inX|\GEN_vga_letter_parse:1:vga_letter_parseX   ; 8     ; 0              ; 0            ; 0              ; 80     ; 0               ; 0             ; 0               ; 0     ; 0              ; 0            ; 0                ; 0                 ;
; vga2X|\GEN_vga_word_parse_in:5:vga_word_parse_inX                                             ; 64    ; 0              ; 0            ; 0              ; 640    ; 0               ; 0             ; 0               ; 0     ; 0              ; 0            ; 0                ; 0                 ;
; vga2X|\GEN_vga_word_parse_in:4:vga_word_parse_inX|\GEN_vga_letter_parse:8:vga_letter_parseX   ; 8     ; 0              ; 0            ; 0              ; 80     ; 0               ; 0             ; 0               ; 0     ; 0              ; 0            ; 0                ; 0                 ;
; vga2X|\GEN_vga_word_parse_in:4:vga_word_parse_inX|\GEN_vga_letter_parse:7:vga_letter_parseX   ; 8     ; 0              ; 0            ; 0              ; 80     ; 0               ; 0             ; 0               ; 0     ; 0              ; 0            ; 0                ; 0                 ;
; vga2X|\GEN_vga_word_parse_in:4:vga_word_parse_inX|\GEN_vga_letter_parse:6:vga_letter_parseX   ; 8     ; 0              ; 0            ; 0              ; 80     ; 0               ; 0             ; 0               ; 0     ; 0              ; 0            ; 0                ; 0                 ;
; vga2X|\GEN_vga_word_parse_in:4:vga_word_parse_inX|\GEN_vga_letter_parse:5:vga_letter_parseX   ; 8     ; 0              ; 0            ; 0              ; 80     ; 0               ; 0             ; 0               ; 0     ; 0              ; 0            ; 0                ; 0                 ;
; vga2X|\GEN_vga_word_parse_in:4:vga_word_parse_inX|\GEN_vga_letter_parse:4:vga_letter_parseX   ; 8     ; 0              ; 0            ; 0              ; 80     ; 0               ; 0             ; 0               ; 0     ; 0              ; 0            ; 0                ; 0                 ;
; vga2X|\GEN_vga_word_parse_in:4:vga_word_parse_inX|\GEN_vga_letter_parse:3:vga_letter_parseX   ; 8     ; 0              ; 0            ; 0              ; 80     ; 0               ; 0             ; 0               ; 0     ; 0              ; 0            ; 0                ; 0                 ;
; vga2X|\GEN_vga_word_parse_in:4:vga_word_parse_inX|\GEN_vga_letter_parse:2:vga_letter_parseX   ; 8     ; 0              ; 0            ; 0              ; 80     ; 0               ; 0             ; 0               ; 0     ; 0              ; 0            ; 0                ; 0                 ;
; vga2X|\GEN_vga_word_parse_in:4:vga_word_parse_inX|\GEN_vga_letter_parse:1:vga_letter_parseX   ; 8     ; 0              ; 0            ; 0              ; 80     ; 0               ; 0             ; 0               ; 0     ; 0              ; 0            ; 0                ; 0                 ;
; vga2X|\GEN_vga_word_parse_in:4:vga_word_parse_inX                                             ; 64    ; 0              ; 0            ; 0              ; 640    ; 0               ; 0             ; 0               ; 0     ; 0              ; 0            ; 0                ; 0                 ;
; vga2X|\GEN_vga_word_parse_in:3:vga_word_parse_inX|\GEN_vga_letter_parse:8:vga_letter_parseX   ; 8     ; 0              ; 0            ; 0              ; 80     ; 0               ; 0             ; 0               ; 0     ; 0              ; 0            ; 0                ; 0                 ;
; vga2X|\GEN_vga_word_parse_in:3:vga_word_parse_inX|\GEN_vga_letter_parse:7:vga_letter_parseX   ; 8     ; 0              ; 0            ; 0              ; 80     ; 0               ; 0             ; 0               ; 0     ; 0              ; 0            ; 0                ; 0                 ;
; vga2X|\GEN_vga_word_parse_in:3:vga_word_parse_inX|\GEN_vga_letter_parse:6:vga_letter_parseX   ; 8     ; 0              ; 0            ; 0              ; 80     ; 0               ; 0             ; 0               ; 0     ; 0              ; 0            ; 0                ; 0                 ;
; vga2X|\GEN_vga_word_parse_in:3:vga_word_parse_inX|\GEN_vga_letter_parse:5:vga_letter_parseX   ; 8     ; 0              ; 0            ; 0              ; 80     ; 0               ; 0             ; 0               ; 0     ; 0              ; 0            ; 0                ; 0                 ;
; vga2X|\GEN_vga_word_parse_in:3:vga_word_parse_inX|\GEN_vga_letter_parse:4:vga_letter_parseX   ; 8     ; 0              ; 0            ; 0              ; 80     ; 0               ; 0             ; 0               ; 0     ; 0              ; 0            ; 0                ; 0                 ;
; vga2X|\GEN_vga_word_parse_in:3:vga_word_parse_inX|\GEN_vga_letter_parse:3:vga_letter_parseX   ; 8     ; 0              ; 0            ; 0              ; 80     ; 0               ; 0             ; 0               ; 0     ; 0              ; 0            ; 0                ; 0                 ;
; vga2X|\GEN_vga_word_parse_in:3:vga_word_parse_inX|\GEN_vga_letter_parse:2:vga_letter_parseX   ; 8     ; 0              ; 0            ; 0              ; 80     ; 0               ; 0             ; 0               ; 0     ; 0              ; 0            ; 0                ; 0                 ;
; vga2X|\GEN_vga_word_parse_in:3:vga_word_parse_inX|\GEN_vga_letter_parse:1:vga_letter_parseX   ; 8     ; 0              ; 0            ; 0              ; 80     ; 0               ; 0             ; 0               ; 0     ; 0              ; 0            ; 0                ; 0                 ;
; vga2X|\GEN_vga_word_parse_in:3:vga_word_parse_inX                                             ; 64    ; 0              ; 0            ; 0              ; 640    ; 0               ; 0             ; 0               ; 0     ; 0              ; 0            ; 0                ; 0                 ;
; vga2X|\GEN_vga_word_parse_in:2:vga_word_parse_inX|\GEN_vga_letter_parse:8:vga_letter_parseX   ; 8     ; 0              ; 0            ; 0              ; 80     ; 0               ; 0             ; 0               ; 0     ; 0              ; 0            ; 0                ; 0                 ;
; vga2X|\GEN_vga_word_parse_in:2:vga_word_parse_inX|\GEN_vga_letter_parse:7:vga_letter_parseX   ; 8     ; 0              ; 0            ; 0              ; 80     ; 0               ; 0             ; 0               ; 0     ; 0              ; 0            ; 0                ; 0                 ;
; vga2X|\GEN_vga_word_parse_in:2:vga_word_parse_inX|\GEN_vga_letter_parse:6:vga_letter_parseX   ; 8     ; 0              ; 0            ; 0              ; 80     ; 0               ; 0             ; 0               ; 0     ; 0              ; 0            ; 0                ; 0                 ;
; vga2X|\GEN_vga_word_parse_in:2:vga_word_parse_inX|\GEN_vga_letter_parse:5:vga_letter_parseX   ; 8     ; 0              ; 0            ; 0              ; 80     ; 0               ; 0             ; 0               ; 0     ; 0              ; 0            ; 0                ; 0                 ;
; vga2X|\GEN_vga_word_parse_in:2:vga_word_parse_inX|\GEN_vga_letter_parse:4:vga_letter_parseX   ; 8     ; 0              ; 0            ; 0              ; 80     ; 0               ; 0             ; 0               ; 0     ; 0              ; 0            ; 0                ; 0                 ;
; vga2X|\GEN_vga_word_parse_in:2:vga_word_parse_inX|\GEN_vga_letter_parse:3:vga_letter_parseX   ; 8     ; 0              ; 0            ; 0              ; 80     ; 0               ; 0             ; 0               ; 0     ; 0              ; 0            ; 0                ; 0                 ;
; vga2X|\GEN_vga_word_parse_in:2:vga_word_parse_inX|\GEN_vga_letter_parse:2:vga_letter_parseX   ; 8     ; 0              ; 0            ; 0              ; 80     ; 0               ; 0             ; 0               ; 0     ; 0              ; 0            ; 0                ; 0                 ;
; vga2X|\GEN_vga_word_parse_in:2:vga_word_parse_inX|\GEN_vga_letter_parse:1:vga_letter_parseX   ; 8     ; 0              ; 0            ; 0              ; 80     ; 0               ; 0             ; 0               ; 0     ; 0              ; 0            ; 0                ; 0                 ;
; vga2X|\GEN_vga_word_parse_in:2:vga_word_parse_inX                                             ; 64    ; 0              ; 0            ; 0              ; 640    ; 0               ; 0             ; 0               ; 0     ; 0              ; 0            ; 0                ; 0                 ;
; vga2X|\GEN_vga_word_parse_in:1:vga_word_parse_inX|\GEN_vga_letter_parse:8:vga_letter_parseX   ; 8     ; 0              ; 0            ; 0              ; 80     ; 0               ; 0             ; 0               ; 0     ; 0              ; 0            ; 0                ; 0                 ;
; vga2X|\GEN_vga_word_parse_in:1:vga_word_parse_inX|\GEN_vga_letter_parse:7:vga_letter_parseX   ; 8     ; 0              ; 0            ; 0              ; 80     ; 0               ; 0             ; 0               ; 0     ; 0              ; 0            ; 0                ; 0                 ;
; vga2X|\GEN_vga_word_parse_in:1:vga_word_parse_inX|\GEN_vga_letter_parse:6:vga_letter_parseX   ; 8     ; 0              ; 0            ; 0              ; 80     ; 0               ; 0             ; 0               ; 0     ; 0              ; 0            ; 0                ; 0                 ;
; vga2X|\GEN_vga_word_parse_in:1:vga_word_parse_inX|\GEN_vga_letter_parse:5:vga_letter_parseX   ; 8     ; 0              ; 0            ; 0              ; 80     ; 0               ; 0             ; 0               ; 0     ; 0              ; 0            ; 0                ; 0                 ;
; vga2X|\GEN_vga_word_parse_in:1:vga_word_parse_inX|\GEN_vga_letter_parse:4:vga_letter_parseX   ; 8     ; 0              ; 0            ; 0              ; 80     ; 0               ; 0             ; 0               ; 0     ; 0              ; 0            ; 0                ; 0                 ;
; vga2X|\GEN_vga_word_parse_in:1:vga_word_parse_inX|\GEN_vga_letter_parse:3:vga_letter_parseX   ; 8     ; 0              ; 0            ; 0              ; 80     ; 0               ; 0             ; 0               ; 0     ; 0              ; 0            ; 0                ; 0                 ;
; vga2X|\GEN_vga_word_parse_in:1:vga_word_parse_inX|\GEN_vga_letter_parse:2:vga_letter_parseX   ; 8     ; 0              ; 0            ; 0              ; 80     ; 0               ; 0             ; 0               ; 0     ; 0              ; 0            ; 0                ; 0                 ;
; vga2X|\GEN_vga_word_parse_in:1:vga_word_parse_inX|\GEN_vga_letter_parse:1:vga_letter_parseX   ; 8     ; 0              ; 0            ; 0              ; 80     ; 0               ; 0             ; 0               ; 0     ; 0              ; 0            ; 0                ; 0                 ;
; vga2X|\GEN_vga_word_parse_in:1:vga_word_parse_inX                                             ; 64    ; 0              ; 0            ; 0              ; 640    ; 0               ; 0             ; 0               ; 0     ; 0              ; 0            ; 0                ; 0                 ;
; vga2X                                                                                         ; 19    ; 2              ; 0            ; 2              ; 29     ; 2               ; 2             ; 2               ; 0     ; 0              ; 0            ; 0                ; 0                 ;
; clk_div1                                                                                      ; 1     ; 6              ; 0            ; 6              ; 7      ; 6               ; 6             ; 6               ; 0     ; 0              ; 0            ; 0                ; 0                 ;
; sram1|clk_div1                                                                                ; 1     ; 6              ; 0            ; 6              ; 7      ; 6               ; 6             ; 6               ; 0     ; 0              ; 0            ; 0                ; 0                 ;
; sram1                                                                                         ; 41    ; 20             ; 0            ; 20             ; 41     ; 20              ; 20            ; 20              ; 16    ; 0              ; 0            ; 0                ; 0                 ;
+-----------------------------------------------------------------------------------------------+-------+----------------+--------------+----------------+--------+-----------------+---------------+-----------------+-------+----------------+--------------+------------------+-------------------+
